{"count":385,"next":"https://hub.docker.com/v2/repositories/library/nginx/tags/?page=38","previous":"https://hub.docker.com/v2/repositories/library/nginx/tags/?page=36","results":[{"creator":2215,"id":2255502,"image_id":null,"images":[],"last_updated":"2016-04-05T19:09:10.498387Z","last_updater":2215,"last_updater_username":"stackbrew","name":"1.8","repository":21171,"full_size":54858833,"v2":true,"tag_status":"inactive","tag_last_pulled":null,"tag_last_pushed":"2016-04-05T19:09:10.498387Z"},{"creator":2215,"id":2547209,"image_id":null,"images":[],"last_updated":"2016-04-05T19:08:45.024396Z","last_updater":2215,"last_updater_username":"stackbrew","name":"1.9.14","repository":21171,"full_size":71143145,"v2":true,"tag_status":"inactive","tag_last_pulled":null,"tag_last_pushed":"2016-04-05T19:08:45.024396Z"},{"creator":2215,"id":2255498,"image_id":null,"images":[],"last_updated":"2016-04-04T19:20:16.570084Z","last_updater":213249,"last_updater_username":"toli","name":"1.9.12","repository":21171,"full_size":74882291,"v2":true,"tag_status":"inactive","tag_last_pulled":null,"tag_last_pushed":"2016-04-04T19:20:16.570084Z"},{"creator":2215,"id":1978714,"image_id":null,"images":[],"last_updated":"2016-03-03T17:13:04.5282Z","last_updater":2215,"last_updater_username":"stackbrew","name":"1.9.11","repository":21171,"full_size":55457491,"v2":true,"tag_status":"inactive","tag_last_pulled":null,"tag_last_pushed":"2016-03-03T17:13:04.5282Z"},{"creator":2215,"id":1832490,"image_id":null,"images":[],"last_updated":"2016-02-02T22:48:32.425139Z","last_updater":213249,"last_updater_username":"toli","name":"1.9.10","repository":21171,"full_size":55402687,"v2":true,"tag_status":"inactive","tag_last_pulled":null,"tag_last_pushed":"2016-02-02T22:48:32.425139Z"},{"creator":2215,"id":1571354,"image_id":null,"images":[],"last_updated":"2016-01-11T22:55:57.108268Z","last_updater":2215,"last_updater_username":"stackbrew","name":"1.9.9","repository":21171,"full_size":55224981,"v2":true,"tag_status":"inactive","tag_last_pulled":null,"tag_last_pushed":"2016-01-11T22:55:57.108268Z"},{"creator":2215,"id":1508770,"image_id":null,"images":[],"last_updated":"2015-12-08T18:24:28.279048Z","last_updater":2215,"last_updater_username":"stackbrew","name":"1.9.8","repository":21171,"full_size":55224991,"v2":true,"tag_status":"inactive","tag_last_pulled":null,"tag_last_pushed":"2015-12-08T18:24:28.279048Z"},{"creator":2215,"id":1375250,"image_id":null,"images":[],"last_updated":"2015-12-08T03:10:53.954111Z","last_updater":2215,"last_updater_username":"stackbrew","name":"1.9.7","repository":21171,"full_size":54742791,"v2":true,"tag_status":"inactive","tag_last_pulled":null,"tag_last_pushed":"2015-12-08T03:10:53.954111Z"},{"creator":7,"id":19439,"image_id":null,"images":[],"last_updated":"2015-11-14T15:10:41.501336Z","last_updater":134455,"last_updater_username":"diogomonica","name":"1.7.8","repository":21171,"full_size":39931157,"v2":true,"tag_status":"inactive","tag_last_pulled":null,"tag_last_pushed":"2015-11-14T15:10:41.501336Z"},{"creator":7,"id":19441,"image_id":null,"images":[],"last_updated":"2015-11-14T15:10:27.564718Z","last_updater":134455,"last_updater_username":"diogomonica","name":"1.7.7","repository":21171,"full_size":47924631,"v2":true,"tag_status":"inactive","tag_last_pulled":null,"tag_last_pushed":"2015-11-14T15:10:27.564718Z"}]}
