{"count":385,"next":"https://hub.docker.com/v2/repositories/library/nginx/tags/?page=39","previous":"https://hub.docker.com/v2/repositories/library/nginx/tags/?page=37","results":[{"creator":7,"id":19443,"image_id":null,"images":[],"last_updated":"2015-11-14T15:09:25.160535Z","last_updater":134455,"last_updater_username":"diogomonica","name":"1.7.6","repository":21171,"full_size":47927265,"v2":true,"tag_status":"inactive","tag_last_pulled":null,"tag_last_pushed":"2015-11-14T15:09:25.160535Z"},{"creator":7,"id":19437,"image_id":null,"images":[],"last_updated":"2015-11-14T15:08:35.102109Z","last_updater":134455,"last_updater_username":"diogomonica","name":"1.7.9","repository":21171,"full_size":39941925,"v2":true,"tag_status":"inactive","tag_last_pulled":null,"tag_last_pushed":"2015-11-14T15:08:35.102109Z"},{"creator":7,"id":19428,"image_id":null,"images":[],"last_updated":"2015-11-14T15:07:45.574289Z","last_updater":134455,"last_updater_username":"diogomonica","name":"1.7.10","repository":21171,"full_size":41026564,"v2":true,"tag_status":"inactive","tag_last_pulled":null,"tag_last_pushed":"2015-11-14T15:07:45.574289Z"},{"creator":7,"id":19450,"image_id":null,"images":[],"last_updated":"2015-11-14T15:06:56.859137Z","last_updater":134455,"last_updater_username":"diogomonica","name":"1.7.1","repository":21171,"full_size":192559099,"v2":true,"tag_status":"inactive","tag_last_pulled":null,"tag_last_pushed":"2015-11-14T15:06:56.859137Z"},{"creator":7,"id":19444,"image_id":null,"images":[],"last_updated":"2015-11-14T15:04:23.826352Z","last_updater":134455,"last_updater_username":"diogomonica","name":"1.7.5","repository":21171,"full_size":47967738,"v2":true,"tag_status":"inactive","tag_last_pulled":null,"tag_last_pushed":"2015-11-14T15:04:23.826352Z"},{"creator":2215,"id":1228488,"image_id":null,"images":[],"last_updated":"2015-11-11T19:53:14.85927Z","last_updater":2215,"last_updater_username":"stackbrew","name":"1.9.6","repository":21171,"full_size":54741146,"v2":true,"tag_status":"inactive","tag_last_pulled":null,"tag_last_pushed":"2015-11-11T19:53:14.85927Z"},{"creator":2215,"id":959083,"image_id":null,"images":[],"last_updated":"2015-10-28T06:09:05.704752Z","last_updater":2215,"last_updater_username":"stackbrew","name":"1.9.5","repository":21171,"full_size":54740460,"v2":true,"tag_status":"inactive","tag_last_pulled":null,"tag_last_pushed":"2015-10-28T06:09:05.704752Z"},{"creator":2215,"id":769191,"image_id":null,"images":[],"last_updated":null,"last_updater":2215,"last_updater_username":"stackbrew","name":"1.9.4","repository":21171,"full_size":54747536,"v2":true,"tag_status":"inactive","tag_last_pulled":null,"tag_last_pushed":null},{"creator":2215,"id":583975,"image_id":null,"images":[],"last_updated":null,"last_updater":213249,"last_updater_username":"toli","name":"1.9.3","repository":21171,"full_size":54755971,"v2":true,"tag_status":"inactive","tag_last_pulled":null,"tag_last_pushed":null},{"creator":7,"id":19448,"image_id":null,"images":[],"last_updated":null,"last_updater":2215,"last_updater_username":"stackbrew","name":"1.9.2","repository":21171,"full_size":54753656,"v2":true,"tag_status":"inactive","tag_last_pulled":null,"tag_last_pushed":null}]}
